%YAML 1.1
%TAG !u! tag:unity3d.com,2011:
--- !u!29 &1
OcclusionCullingSettings:
  m_ObjectHideFlags: 0
  serializedVersion: 2
  m_OcclusionBakeSettings:
    smallestOccluder: 5
    smallestHole: 0.25
    backfaceThreshold: 100
  m_SceneGUID: 00000000000000000000000000000000
  m_OcclusionCullingData: {fileID: 0}
--- !u!104 &2
RenderSettings:
  m_ObjectHideFlags: 0
  serializedVersion: 8
  m_Fog: 0
  m_FogColor: {r: 0.5, g: 0.5, b: 0.5, a: 1}
  m_FogMode: 3
  m_FogDensity: 0.01
  m_LinearFogStart: 0
  m_LinearFogEnd: 300
  m_AmbientSkyColor: {r: 0.212, g: 0.227, b: 0.259, a: 1}
  m_AmbientEquatorColor: {r: 0.114, g: 0.125, b: 0.133, a: 1}
  m_AmbientGroundColor: {r: 0.047, g: 0.043, b: 0.035, a: 1}
  m_AmbientIntensity: 1
  m_AmbientMode: 3
  m_SubtractiveShadowColor: {r: 0.42, g: 0.478, b: 0.627, a: 1}
  m_SkyboxMaterial: {fileID: 0}
  m_HaloStrength: 0.5
  m_FlareStrength: 1
  m_FlareFadeSpeed: 3
  m_HaloTexture: {fileID: 0}
  m_SpotCookie: {fileID: 10001, guid: 0000000000000000e000000000000000, type: 0}
  m_DefaultReflectionMode: 0
  m_DefaultReflectionResolution: 128
  m_ReflectionBounces: 1
  m_ReflectionIntensity: 1
  m_CustomReflection: {fileID: 0}
  m_Sun: {fileID: 0}
  m_IndirectSpecularColor: {r: 0, g: 0, b: 0, a: 1}
--- !u!157 &3
LightmapSettings:
  m_ObjectHideFlags: 0
  serializedVersion: 11
  m_GIWorkflowMode: 1
  m_GISettings:
    serializedVersion: 2
    m_BounceScale: 1
    m_IndirectOutputScale: 1
    m_AlbedoBoost: 1
    m_TemporalCoherenceThreshold: 1
    m_EnvironmentLightingMode: 0
    m_EnableBakedLightmaps: 0
    m_EnableRealtimeLightmaps: 0
  m_LightmapEditorSettings:
    serializedVersion: 9
    m_Resolution: 2
    m_BakeResolution: 40
    m_TextureWidth: 1024
    m_TextureHeight: 1024
    m_AO: 0
    m_AOMaxDistance: 1
    m_CompAOExponent: 1
    m_CompAOExponentDirect: 0
    m_Padding: 2
    m_LightmapParameters: {fileID: 0}
    m_LightmapsBakeMode: 1
    m_TextureCompression: 1
    m_FinalGather: 0
    m_FinalGatherFiltering: 1
    m_FinalGatherRayCount: 256
    m_ReflectionCompression: 2
    m_MixedBakeMode: 2
    m_BakeBackend: 0
    m_PVRSampling: 1
    m_PVRDirectSampleCount: 32
    m_PVRSampleCount: 500
    m_PVRBounces: 2
    m_PVRFilterTypeDirect: 0
    m_PVRFilterTypeIndirect: 0
    m_PVRFilterTypeAO: 0
    m_PVRFilteringMode: 1
    m_PVRCulling: 1
    m_PVRFilteringGaussRadiusDirect: 1
    m_PVRFilteringGaussRadiusIndirect: 5
    m_PVRFilteringGaussRadiusAO: 2
    m_PVRFilteringAtrousPositionSigmaDirect: 0.5
    m_PVRFilteringAtrousPositionSigmaIndirect: 2
    m_PVRFilteringAtrousPositionSigmaAO: 1
    m_ShowResolutionOverlay: 1
  m_LightingDataAsset: {fileID: 0}
  m_UseShadowmask: 1
--- !u!196 &4
NavMeshSettings:
  serializedVersion: 2
  m_ObjectHideFlags: 0
  m_BuildSettings:
    serializedVersion: 2
    agentTypeID: 0
    agentRadius: 0.5
    agentHeight: 2
    agentSlope: 45
    agentClimb: 0.4
    ledgeDropHeight: 0
    maxJumpAcrossDistance: 0
    minRegionArea: 2
    manualCellSize: 0
    cellSize: 0.16666667
    manualTileSize: 0
    tileSize: 256
    accuratePlacement: 0
    debug:
      m_Flags: 0
  m_NavMeshData: {fileID: 0}
--- !u!1001 &106748715
Prefab:
  m_ObjectHideFlags: 0
  serializedVersion: 2
  m_Modification:
    m_TransformParent: {fileID: 0}
    m_Modifications:
    - target: {fileID: 4076566330649220, guid: a2a9cd800c36d7445ab13a02c437ec8b, type: 2}
      propertyPath: m_LocalPosition.x
      value: 0
      objectReference: {fileID: 0}
    - target: {fileID: 4076566330649220, guid: a2a9cd800c36d7445ab13a02c437ec8b, type: 2}
      propertyPath: m_LocalPosition.y
      value: 0
      objectReference: {fileID: 0}
    - target: {fileID: 4076566330649220, guid: a2a9cd800c36d7445ab13a02c437ec8b, type: 2}
      propertyPath: m_LocalPosition.z
      value: 0
      objectReference: {fileID: 0}
    - target: {fileID: 4076566330649220, guid: a2a9cd800c36d7445ab13a02c437ec8b, type: 2}
      propertyPath: m_LocalRotation.x
      value: 0
      objectReference: {fileID: 0}
    - target: {fileID: 4076566330649220, guid: a2a9cd800c36d7445ab13a02c437ec8b, type: 2}
      propertyPath: m_LocalRotation.y
      value: 0
      objectReference: {fileID: 0}
    - target: {fileID: 4076566330649220, guid: a2a9cd800c36d7445ab13a02c437ec8b, type: 2}
      propertyPath: m_LocalRotation.z
      value: 0
      objectReference: {fileID: 0}
    - target: {fileID: 4076566330649220, guid: a2a9cd800c36d7445ab13a02c437ec8b, type: 2}
      propertyPath: m_LocalRotation.w
      value: 1
      objectReference: {fileID: 0}
    - target: {fileID: 4076566330649220, guid: a2a9cd800c36d7445ab13a02c437ec8b, type: 2}
      propertyPath: m_RootOrder
      value: 11
      objectReference: {fileID: 0}
    m_RemovedComponents: []
  m_ParentPrefab: {fileID: 100100000, guid: a2a9cd800c36d7445ab13a02c437ec8b, type: 2}
  m_IsPrefabParent: 0
--- !u!20 &106748716 stripped
Camera:
  m_PrefabParentObject: {fileID: 20004134127059620, guid: a2a9cd800c36d7445ab13a02c437ec8b,
    type: 2}
  m_PrefabInternal: {fileID: 106748715}
--- !u!1001 &310508529
Prefab:
  m_ObjectHideFlags: 0
  serializedVersion: 2
  m_Modification:
    m_TransformParent: {fileID: 0}
    m_Modifications:
    - target: {fileID: 4309542803828616, guid: f2db1a731ebfe514dba78c28945811d8, type: 2}
      propertyPath: m_LocalPosition.x
      value: 0
      objectReference: {fileID: 0}
    - target: {fileID: 4309542803828616, guid: f2db1a731ebfe514dba78c28945811d8, type: 2}
      propertyPath: m_LocalPosition.y
      value: 211.40843
      objectReference: {fileID: 0}
    - target: {fileID: 4309542803828616, guid: f2db1a731ebfe514dba78c28945811d8, type: 2}
      propertyPath: m_LocalPosition.z
      value: 0
      objectReference: {fileID: 0}
    - target: {fileID: 4309542803828616, guid: f2db1a731ebfe514dba78c28945811d8, type: 2}
      propertyPath: m_LocalRotation.x
      value: -0
      objectReference: {fileID: 0}
    - target: {fileID: 4309542803828616, guid: f2db1a731ebfe514dba78c28945811d8, type: 2}
      propertyPath: m_LocalRotation.y
      value: -0
      objectReference: {fileID: 0}
    - target: {fileID: 4309542803828616, guid: f2db1a731ebfe514dba78c28945811d8, type: 2}
      propertyPath: m_LocalRotation.z
      value: -0
      objectReference: {fileID: 0}
    - target: {fileID: 4309542803828616, guid: f2db1a731ebfe514dba78c28945811d8, type: 2}
      propertyPath: m_LocalRotation.w
      value: 1
      objectReference: {fileID: 0}
    - target: {fileID: 4309542803828616, guid: f2db1a731ebfe514dba78c28945811d8, type: 2}
      propertyPath: m_RootOrder
      value: 6
      objectReference: {fileID: 0}
    m_RemovedComponents: []
  m_ParentPrefab: {fileID: 100100000, guid: f2db1a731ebfe514dba78c28945811d8, type: 2}
  m_IsPrefabParent: 0
--- !u!1001 &902075464
Prefab:
  m_ObjectHideFlags: 0
  serializedVersion: 2
  m_Modification:
    m_TransformParent: {fileID: 0}
    m_Modifications:
    - target: {fileID: 4187803825580742, guid: 74bdb895ce736bb439f646e1b7eef863, type: 2}
      propertyPath: m_LocalPosition.x
      value: 0
      objectReference: {fileID: 0}
    - target: {fileID: 4187803825580742, guid: 74bdb895ce736bb439f646e1b7eef863, type: 2}
      propertyPath: m_LocalPosition.y
      value: 0
      objectReference: {fileID: 0}
    - target: {fileID: 4187803825580742, guid: 74bdb895ce736bb439f646e1b7eef863, type: 2}
      propertyPath: m_LocalPosition.z
      value: 0
      objectReference: {fileID: 0}
    - target: {fileID: 4187803825580742, guid: 74bdb895ce736bb439f646e1b7eef863, type: 2}
      propertyPath: m_LocalRotation.x
      value: 0
      objectReference: {fileID: 0}
    - target: {fileID: 4187803825580742, guid: 74bdb895ce736bb439f646e1b7eef863, type: 2}
      propertyPath: m_LocalRotation.y
      value: 0
      objectReference: {fileID: 0}
    - target: {fileID: 4187803825580742, guid: 74bdb895ce736bb439f646e1b7eef863, type: 2}
      propertyPath: m_LocalRotation.z
      value: 0
      objectReference: {fileID: 0}
    - target: {fileID: 4187803825580742, guid: 74bdb895ce736bb439f646e1b7eef863, type: 2}
      propertyPath: m_LocalRotation.w
      value: 1
      objectReference: {fileID: 0}
    - target: {fileID: 4187803825580742, guid: 74bdb895ce736bb439f646e1b7eef863, type: 2}
      propertyPath: m_RootOrder
      value: 13
      objectReference: {fileID: 0}
    m_RemovedComponents: []
  m_ParentPrefab: {fileID: 100100000, guid: 74bdb895ce736bb439f646e1b7eef863, type: 2}
  m_IsPrefabParent: 0
--- !u!1001 &1057373188
Prefab:
  m_ObjectHideFlags: 0
  serializedVersion: 2
  m_Modification:
    m_TransformParent: {fileID: 0}
    m_Modifications:
    - target: {fileID: 4012220875896822, guid: bdc2b94fd243fbf4397e562c79154a2f, type: 2}
      propertyPath: m_LocalPosition.x
      value: -23
      objectReference: {fileID: 0}
    - target: {fileID: 4012220875896822, guid: bdc2b94fd243fbf4397e562c79154a2f, type: 2}
      propertyPath: m_LocalPosition.y
      value: 143.40843
      objectReference: {fileID: 0}
    - target: {fileID: 4012220875896822, guid: bdc2b94fd243fbf4397e562c79154a2f, type: 2}
      propertyPath: m_LocalPosition.z
      value: 0
      objectReference: {fileID: 0}
    - target: {fileID: 4012220875896822, guid: bdc2b94fd243fbf4397e562c79154a2f, type: 2}
      propertyPath: m_LocalRotation.x
      value: -0
      objectReference: {fileID: 0}
    - target: {fileID: 4012220875896822, guid: bdc2b94fd243fbf4397e562c79154a2f, type: 2}
      propertyPath: m_LocalRotation.y
      value: -0
      objectReference: {fileID: 0}
    - target: {fileID: 4012220875896822, guid: bdc2b94fd243fbf4397e562c79154a2f, type: 2}
      propertyPath: m_LocalRotation.z
      value: -0
      objectReference: {fileID: 0}
    - target: {fileID: 4012220875896822, guid: bdc2b94fd243fbf4397e562c79154a2f, type: 2}
      propertyPath: m_LocalRotation.w
      value: 1
      objectReference: {fileID: 0}
    - target: {fileID: 4012220875896822, guid: bdc2b94fd243fbf4397e562c79154a2f, type: 2}
      propertyPath: m_RootOrder
      value: 5
      objectReference: {fileID: 0}
    - target: {fileID: 212505655195039380, guid: bdc2b94fd243fbf4397e562c79154a2f,
        type: 2}
      propertyPath: m_Color.r
      value: 1
      objectReference: {fileID: 0}
    - target: {fileID: 212505655195039380, guid: bdc2b94fd243fbf4397e562c79154a2f,
        type: 2}
      propertyPath: m_Color.g
      value: 1
      objectReference: {fileID: 0}
    - target: {fileID: 212505655195039380, guid: bdc2b94fd243fbf4397e562c79154a2f,
        type: 2}
      propertyPath: m_Color.b
      value: 1
      objectReference: {fileID: 0}
    - target: {fileID: 1643970028693594, guid: bdc2b94fd243fbf4397e562c79154a2f, type: 2}
      propertyPath: m_Layer
      value: 8
      objectReference: {fileID: 0}
    - target: {fileID: 1944451432454098, guid: bdc2b94fd243fbf4397e562c79154a2f, type: 2}
      propertyPath: m_Layer
      value: 8
      objectReference: {fileID: 0}
    - target: {fileID: 4012220875896822, guid: bdc2b94fd243fbf4397e562c79154a2f, type: 2}
      propertyPath: m_LocalScale.x
      value: 3
      objectReference: {fileID: 0}
    m_RemovedComponents: []
  m_ParentPrefab: {fileID: 100100000, guid: bdc2b94fd243fbf4397e562c79154a2f, type: 2}
  m_IsPrefabParent: 0
--- !u!1001 &1117439253
Prefab:
  m_ObjectHideFlags: 0
  serializedVersion: 2
  m_Modification:
    m_TransformParent: {fileID: 0}
    m_Modifications:
    - target: {fileID: 4942420282365070, guid: 417def6c8f3120c41ae605d8952ec295, type: 2}
      propertyPath: m_LocalPosition.x
      value: 0
      objectReference: {fileID: 0}
    - target: {fileID: 4942420282365070, guid: 417def6c8f3120c41ae605d8952ec295, type: 2}
      propertyPath: m_LocalPosition.y
      value: 0
      objectReference: {fileID: 0}
    - target: {fileID: 4942420282365070, guid: 417def6c8f3120c41ae605d8952ec295, type: 2}
      propertyPath: m_LocalPosition.z
      value: 0
      objectReference: {fileID: 0}
    - target: {fileID: 4942420282365070, guid: 417def6c8f3120c41ae605d8952ec295, type: 2}
      propertyPath: m_LocalRotation.x
      value: 0
      objectReference: {fileID: 0}
    - target: {fileID: 4942420282365070, guid: 417def6c8f3120c41ae605d8952ec295, type: 2}
      propertyPath: m_LocalRotation.y
      value: 0
      objectReference: {fileID: 0}
    - target: {fileID: 4942420282365070, guid: 417def6c8f3120c41ae605d8952ec295, type: 2}
      propertyPath: m_LocalRotation.z
      value: 0
      objectReference: {fileID: 0}
    - target: {fileID: 4942420282365070, guid: 417def6c8f3120c41ae605d8952ec295, type: 2}
      propertyPath: m_LocalRotation.w
      value: 1
      objectReference: {fileID: 0}
    - target: {fileID: 4942420282365070, guid: 417def6c8f3120c41ae605d8952ec295, type: 2}
      propertyPath: m_RootOrder
      value: 12
      objectReference: {fileID: 0}
    m_RemovedComponents: []
  m_ParentPrefab: {fileID: 100100000, guid: 417def6c8f3120c41ae605d8952ec295, type: 2}
  m_IsPrefabParent: 0
--- !u!1001 &1287808590
Prefab:
  m_ObjectHideFlags: 0
  serializedVersion: 2
  m_Modification:
    m_TransformParent: {fileID: 0}
    m_Modifications:
    - target: {fileID: 4865268104390648, guid: 7a78933f3aca69b4b8efe882de26c80a, type: 2}
      propertyPath: m_LocalPosition.x
      value: 0
      objectReference: {fileID: 0}
    - target: {fileID: 4865268104390648, guid: 7a78933f3aca69b4b8efe882de26c80a, type: 2}
      propertyPath: m_LocalPosition.y
      value: 0
      objectReference: {fileID: 0}
    - target: {fileID: 4865268104390648, guid: 7a78933f3aca69b4b8efe882de26c80a, type: 2}
      propertyPath: m_LocalPosition.z
      value: 0
      objectReference: {fileID: 0}
    - target: {fileID: 4865268104390648, guid: 7a78933f3aca69b4b8efe882de26c80a, type: 2}
      propertyPath: m_LocalRotation.x
      value: 0
      objectReference: {fileID: 0}
    - target: {fileID: 4865268104390648, guid: 7a78933f3aca69b4b8efe882de26c80a, type: 2}
      propertyPath: m_LocalRotation.y
      value: 0
      objectReference: {fileID: 0}
    - target: {fileID: 4865268104390648, guid: 7a78933f3aca69b4b8efe882de26c80a, type: 2}
      propertyPath: m_LocalRotation.z
      value: 0
      objectReference: {fileID: 0}
    - target: {fileID: 4865268104390648, guid: 7a78933f3aca69b4b8efe882de26c80a, type: 2}
      propertyPath: m_LocalRotation.w
      value: 1
      objectReference: {fileID: 0}
    - target: {fileID: 4865268104390648, guid: 7a78933f3aca69b4b8efe882de26c80a, type: 2}
      propertyPath: m_RootOrder
      value: 14
      objectReference: {fileID: 0}
    m_RemovedComponents: []
  m_ParentPrefab: {fileID: 100100000, guid: 7a78933f3aca69b4b8efe882de26c80a, type: 2}
  m_IsPrefabParent: 0
--- !u!1001 &1350148937
Prefab:
  m_ObjectHideFlags: 0
  serializedVersion: 2
  m_Modification:
    m_TransformParent: {fileID: 0}
    m_Modifications:
    - target: {fileID: 4251780744195482, guid: a27d04df88b83b843b81c058140ca3b4, type: 2}
      propertyPath: m_LocalPosition.x
      value: 13.0033455
      objectReference: {fileID: 0}
    - target: {fileID: 4251780744195482, guid: a27d04df88b83b843b81c058140ca3b4, type: 2}
      propertyPath: m_LocalPosition.y
      value: -38.007984
      objectReference: {fileID: 0}
    - target: {fileID: 4251780744195482, guid: a27d04df88b83b843b81c058140ca3b4, type: 2}
      propertyPath: m_LocalPosition.z
      value: 0
      objectReference: {fileID: 0}
    - target: {fileID: 4251780744195482, guid: a27d04df88b83b843b81c058140ca3b4, type: 2}
      propertyPath: m_LocalRotation.x
      value: 0
      objectReference: {fileID: 0}
    - target: {fileID: 4251780744195482, guid: a27d04df88b83b843b81c058140ca3b4, type: 2}
      propertyPath: m_LocalRotation.y
      value: 0
      objectReference: {fileID: 0}
    - target: {fileID: 4251780744195482, guid: a27d04df88b83b843b81c058140ca3b4, type: 2}
      propertyPath: m_LocalRotation.z
      value: 0
      objectReference: {fileID: 0}
    - target: {fileID: 4251780744195482, guid: a27d04df88b83b843b81c058140ca3b4, type: 2}
      propertyPath: m_LocalRotation.w
      value: 1
      objectReference: {fileID: 0}
    - target: {fileID: 4251780744195482, guid: a27d04df88b83b843b81c058140ca3b4, type: 2}
      propertyPath: m_RootOrder
      value: 2
      objectReference: {fileID: 0}
    m_RemovedComponents: []
  m_ParentPrefab: {fileID: 100100000, guid: a27d04df88b83b843b81c058140ca3b4, type: 2}
  m_IsPrefabParent: 0
--- !u!1001 &1355711704
Prefab:
  m_ObjectHideFlags: 0
  serializedVersion: 2
  m_Modification:
    m_TransformParent: {fileID: 0}
    m_Modifications:
    - target: {fileID: 4542805629549776, guid: 751659f305e96734782b62d9e785a38f, type: 2}
      propertyPath: m_LocalPosition.x
      value: -129.3
      objectReference: {fileID: 0}
    - target: {fileID: 4542805629549776, guid: 751659f305e96734782b62d9e785a38f, type: 2}
      propertyPath: m_LocalPosition.y
      value: 154.33087
      objectReference: {fileID: 0}
    - target: {fileID: 4542805629549776, guid: 751659f305e96734782b62d9e785a38f, type: 2}
      propertyPath: m_LocalPosition.z
      value: 0
      objectReference: {fileID: 0}
    - target: {fileID: 4542805629549776, guid: 751659f305e96734782b62d9e785a38f, type: 2}
      propertyPath: m_LocalRotation.x
      value: -0
      objectReference: {fileID: 0}
    - target: {fileID: 4542805629549776, guid: 751659f305e96734782b62d9e785a38f, type: 2}
      propertyPath: m_LocalRotation.y
      value: -0
      objectReference: {fileID: 0}
    - target: {fileID: 4542805629549776, guid: 751659f305e96734782b62d9e785a38f, type: 2}
      propertyPath: m_LocalRotation.z
      value: -0
      objectReference: {fileID: 0}
    - target: {fileID: 4542805629549776, guid: 751659f305e96734782b62d9e785a38f, type: 2}
      propertyPath: m_LocalRotation.w
      value: 1
      objectReference: {fileID: 0}
    - target: {fileID: 4542805629549776, guid: 751659f305e96734782b62d9e785a38f, type: 2}
      propertyPath: m_RootOrder
      value: 4
      objectReference: {fileID: 0}
    m_RemovedComponents: []
  m_ParentPrefab: {fileID: 100100000, guid: 751659f305e96734782b62d9e785a38f, type: 2}
  m_IsPrefabParent: 0
--- !u!4 &1355711705 stripped
Transform:
  m_PrefabParentObject: {fileID: 4542805629549776, guid: 751659f305e96734782b62d9e785a38f,
    type: 2}
  m_PrefabInternal: {fileID: 1355711704}
--- !u!1001 &1386052978
Prefab:
  m_ObjectHideFlags: 0
  serializedVersion: 2
  m_Modification:
    m_TransformParent: {fileID: 0}
    m_Modifications:
    - target: {fileID: 224790842390651484, guid: 1f001eb1c6d693846a6dff902d72300f,
        type: 2}
      propertyPath: m_LocalPosition.x
      value: 0
      objectReference: {fileID: 0}
    - target: {fileID: 224790842390651484, guid: 1f001eb1c6d693846a6dff902d72300f,
        type: 2}
      propertyPath: m_LocalPosition.y
      value: 0
      objectReference: {fileID: 0}
    - target: {fileID: 224790842390651484, guid: 1f001eb1c6d693846a6dff902d72300f,
        type: 2}
      propertyPath: m_LocalPosition.z
      value: 0
      objectReference: {fileID: 0}
    - target: {fileID: 224790842390651484, guid: 1f001eb1c6d693846a6dff902d72300f,
        type: 2}
      propertyPath: m_LocalRotation.x
      value: 0
      objectReference: {fileID: 0}
    - target: {fileID: 224790842390651484, guid: 1f001eb1c6d693846a6dff902d72300f,
        type: 2}
      propertyPath: m_LocalRotation.y
      value: 0
      objectReference: {fileID: 0}
    - target: {fileID: 224790842390651484, guid: 1f001eb1c6d693846a6dff902d72300f,
        type: 2}
      propertyPath: m_LocalRotation.z
      value: 0
      objectReference: {fileID: 0}
    - target: {fileID: 224790842390651484, guid: 1f001eb1c6d693846a6dff902d72300f,
        type: 2}
      propertyPath: m_LocalRotation.w
      value: 1
      objectReference: {fileID: 0}
    - target: {fileID: 224790842390651484, guid: 1f001eb1c6d693846a6dff902d72300f,
        type: 2}
      propertyPath: m_RootOrder
      value: 10
      objectReference: {fileID: 0}
    - target: {fileID: 224790842390651484, guid: 1f001eb1c6d693846a6dff902d72300f,
        type: 2}
      propertyPath: m_AnchoredPosition.x
      value: 0
      objectReference: {fileID: 0}
    - target: {fileID: 224790842390651484, guid: 1f001eb1c6d693846a6dff902d72300f,
        type: 2}
      propertyPath: m_AnchoredPosition.y
      value: 0
      objectReference: {fileID: 0}
    - target: {fileID: 224790842390651484, guid: 1f001eb1c6d693846a6dff902d72300f,
        type: 2}
      propertyPath: m_SizeDelta.x
      value: 0
      objectReference: {fileID: 0}
    - target: {fileID: 224790842390651484, guid: 1f001eb1c6d693846a6dff902d72300f,
        type: 2}
      propertyPath: m_SizeDelta.y
      value: 0
      objectReference: {fileID: 0}
    - target: {fileID: 224790842390651484, guid: 1f001eb1c6d693846a6dff902d72300f,
        type: 2}
      propertyPath: m_AnchorMin.x
      value: 0
      objectReference: {fileID: 0}
    - target: {fileID: 224790842390651484, guid: 1f001eb1c6d693846a6dff902d72300f,
        type: 2}
      propertyPath: m_AnchorMin.y
      value: 0
      objectReference: {fileID: 0}
    - target: {fileID: 224790842390651484, guid: 1f001eb1c6d693846a6dff902d72300f,
        type: 2}
      propertyPath: m_AnchorMax.x
      value: 0
      objectReference: {fileID: 0}
    - target: {fileID: 224790842390651484, guid: 1f001eb1c6d693846a6dff902d72300f,
        type: 2}
      propertyPath: m_AnchorMax.y
      value: 0
      objectReference: {fileID: 0}
    - target: {fileID: 224790842390651484, guid: 1f001eb1c6d693846a6dff902d72300f,
        type: 2}
      propertyPath: m_Pivot.x
      value: 0
      objectReference: {fileID: 0}
    - target: {fileID: 224790842390651484, guid: 1f001eb1c6d693846a6dff902d72300f,
        type: 2}
      propertyPath: m_Pivot.y
      value: 0
      objectReference: {fileID: 0}
    - target: {fileID: 223316681588553226, guid: 1f001eb1c6d693846a6dff902d72300f,
        type: 2}
      propertyPath: m_Camera
      value: 
      objectReference: {fileID: 106748716}
    - target: {fileID: 224039472507441288, guid: 1f001eb1c6d693846a6dff902d72300f,
        type: 2}
      propertyPath: m_AnchorMax.x
      value: 1
      objectReference: {fileID: 0}
    - target: {fileID: 224039472507441288, guid: 1f001eb1c6d693846a6dff902d72300f,
        type: 2}
      propertyPath: m_AnchorMax.y
      value: 1
      objectReference: {fileID: 0}
    - target: {fileID: 224614062053561902, guid: 1f001eb1c6d693846a6dff902d72300f,
        type: 2}
      propertyPath: m_AnchorMax.x
      value: 1
      objectReference: {fileID: 0}
    - target: {fileID: 224614062053561902, guid: 1f001eb1c6d693846a6dff902d72300f,
        type: 2}
      propertyPath: m_AnchorMax.y
      value: 1
      objectReference: {fileID: 0}
    m_RemovedComponents: []
  m_ParentPrefab: {fileID: 100100000, guid: 1f001eb1c6d693846a6dff902d72300f, type: 2}
  m_IsPrefabParent: 0
--- !u!1001 &1426996454
Prefab:
  m_ObjectHideFlags: 0
  serializedVersion: 2
  m_Modification:
    m_TransformParent: {fileID: 0}
    m_Modifications:
    - target: {fileID: 4350486058484710, guid: 925a8200272ff724997e563bbfa877e1, type: 2}
      propertyPath: m_LocalPosition.x
      value: 173.38794
      objectReference: {fileID: 0}
    - target: {fileID: 4350486058484710, guid: 925a8200272ff724997e563bbfa877e1, type: 2}
      propertyPath: m_LocalPosition.y
      value: 179.90399
      objectReference: {fileID: 0}
    - target: {fileID: 4350486058484710, guid: 925a8200272ff724997e563bbfa877e1, type: 2}
      propertyPath: m_LocalPosition.z
      value: -0.38244593
      objectReference: {fileID: 0}
    - target: {fileID: 4350486058484710, guid: 925a8200272ff724997e563bbfa877e1, type: 2}
      propertyPath: m_LocalRotation.x
      value: -0
      objectReference: {fileID: 0}
    - target: {fileID: 4350486058484710, guid: 925a8200272ff724997e563bbfa877e1, type: 2}
      propertyPath: m_LocalRotation.y
      value: -0
      objectReference: {fileID: 0}
    - target: {fileID: 4350486058484710, guid: 925a8200272ff724997e563bbfa877e1, type: 2}
      propertyPath: m_LocalRotation.z
      value: -0
      objectReference: {fileID: 0}
    - target: {fileID: 4350486058484710, guid: 925a8200272ff724997e563bbfa877e1, type: 2}
      propertyPath: m_LocalRotation.w
      value: 1
      objectReference: {fileID: 0}
    - target: {fileID: 4350486058484710, guid: 925a8200272ff724997e563bbfa877e1, type: 2}
      propertyPath: m_RootOrder
      value: 7
      objectReference: {fileID: 0}
    m_RemovedComponents: []
  m_ParentPrefab: {fileID: 100100000, guid: 925a8200272ff724997e563bbfa877e1, type: 2}
  m_IsPrefabParent: 0
--- !u!1001 &1725570757
Prefab:
  m_ObjectHideFlags: 0
  serializedVersion: 2
  m_Modification:
    m_TransformParent: {fileID: 0}
    m_Modifications:
    - target: {fileID: 4012220875896822, guid: bdc2b94fd243fbf4397e562c79154a2f, type: 2}
      propertyPath: m_LocalPosition.x
      value: 62
      objectReference: {fileID: 0}
    - target: {fileID: 4012220875896822, guid: bdc2b94fd243fbf4397e562c79154a2f, type: 2}
      propertyPath: m_LocalPosition.y
      value: 144.40843
      objectReference: {fileID: 0}
    - target: {fileID: 4012220875896822, guid: bdc2b94fd243fbf4397e562c79154a2f, type: 2}
      propertyPath: m_LocalPosition.z
      value: 0
      objectReference: {fileID: 0}
    - target: {fileID: 4012220875896822, guid: bdc2b94fd243fbf4397e562c79154a2f, type: 2}
      propertyPath: m_LocalRotation.x
      value: -0
      objectReference: {fileID: 0}
    - target: {fileID: 4012220875896822, guid: bdc2b94fd243fbf4397e562c79154a2f, type: 2}
      propertyPath: m_LocalRotation.y
      value: -0
      objectReference: {fileID: 0}
    - target: {fileID: 4012220875896822, guid: bdc2b94fd243fbf4397e562c79154a2f, type: 2}
      propertyPath: m_LocalRotation.z
      value: -0
      objectReference: {fileID: 0}
    - target: {fileID: 4012220875896822, guid: bdc2b94fd243fbf4397e562c79154a2f, type: 2}
      propertyPath: m_LocalRotation.w
      value: 1
      objectReference: {fileID: 0}
    - target: {fileID: 4012220875896822, guid: bdc2b94fd243fbf4397e562c79154a2f, type: 2}
      propertyPath: m_RootOrder
      value: 3
      objectReference: {fileID: 0}
    - target: {fileID: 1944451432454098, guid: bdc2b94fd243fbf4397e562c79154a2f, type: 2}
      propertyPath: m_Name
      value: Metal (1)
      objectReference: {fileID: 0}
    - target: {fileID: 114745036743096586, guid: bdc2b94fd243fbf4397e562c79154a2f,
        type: 2}
      propertyPath: ExpandedScale.x
      value: 6
      objectReference: {fileID: 0}
    - target: {fileID: 114745036743096586, guid: bdc2b94fd243fbf4397e562c79154a2f,
        type: 2}
      propertyPath: ExpandedScale.y
      value: 0.5
      objectReference: {fileID: 0}
    - target: {fileID: 61861995970879336, guid: bdc2b94fd243fbf4397e562c79154a2f,
        type: 2}
      propertyPath: m_Size.x
      value: 8
      objectReference: {fileID: 0}
    - target: {fileID: 1643970028693594, guid: bdc2b94fd243fbf4397e562c79154a2f, type: 2}
      propertyPath: m_Layer
      value: 8
      objectReference: {fileID: 0}
    - target: {fileID: 1944451432454098, guid: bdc2b94fd243fbf4397e562c79154a2f, type: 2}
      propertyPath: m_Layer
      value: 8
      objectReference: {fileID: 0}
    - target: {fileID: 4012220875896822, guid: bdc2b94fd243fbf4397e562c79154a2f, type: 2}
      propertyPath: m_LocalScale.x
      value: 3
      objectReference: {fileID: 0}
    m_RemovedComponents: []
  m_ParentPrefab: {fileID: 100100000, guid: bdc2b94fd243fbf4397e562c79154a2f, type: 2}
  m_IsPrefabParent: 0
--- !u!1001 &1825267268
Prefab:
  m_ObjectHideFlags: 0
  serializedVersion: 2
  m_Modification:
    m_TransformParent: {fileID: 0}
    m_Modifications:
    - target: {fileID: 4516415863554606, guid: 2acce7aa1a4ab034383b1a15872de93d, type: 2}
      propertyPath: m_LocalPosition.x
      value: -105.08848
      objectReference: {fileID: 0}
    - target: {fileID: 4516415863554606, guid: 2acce7aa1a4ab034383b1a15872de93d, type: 2}
      propertyPath: m_LocalPosition.y
      value: 159.31667
      objectReference: {fileID: 0}
    - target: {fileID: 4516415863554606, guid: 2acce7aa1a4ab034383b1a15872de93d, type: 2}
      propertyPath: m_LocalPosition.z
      value: 0
      objectReference: {fileID: 0}
    - target: {fileID: 4516415863554606, guid: 2acce7aa1a4ab034383b1a15872de93d, type: 2}
      propertyPath: m_LocalRotation.x
      value: -0
      objectReference: {fileID: 0}
    - target: {fileID: 4516415863554606, guid: 2acce7aa1a4ab034383b1a15872de93d, type: 2}
      propertyPath: m_LocalRotation.y
      value: -0
      objectReference: {fileID: 0}
    - target: {fileID: 4516415863554606, guid: 2acce7aa1a4ab034383b1a15872de93d, type: 2}
      propertyPath: m_LocalRotation.z
      value: -0
      objectReference: {fileID: 0}
    - target: {fileID: 4516415863554606, guid: 2acce7aa1a4ab034383b1a15872de93d, type: 2}
      propertyPath: m_LocalRotation.w
      value: 1
      objectReference: {fileID: 0}
    - target: {fileID: 4516415863554606, guid: 2acce7aa1a4ab034383b1a15872de93d, type: 2}
      propertyPath: m_RootOrder
      value: 1
      objectReference: {fileID: 0}
    m_RemovedComponents: []
  m_ParentPrefab: {fileID: 100100000, guid: 2acce7aa1a4ab034383b1a15872de93d, type: 2}
  m_IsPrefabParent: 0
--- !u!1001 &1947137086
Prefab:
  m_ObjectHideFlags: 0
  serializedVersion: 2
  m_Modification:
    m_TransformParent: {fileID: 0}
    m_Modifications:
    - target: {fileID: 4945121953214020, guid: 93313bc3df103164b971e22bd9db9249, type: 2}
      propertyPath: m_LocalPosition.x
      value: 0
      objectReference: {fileID: 0}
    - target: {fileID: 4945121953214020, guid: 93313bc3df103164b971e22bd9db9249, type: 2}
      propertyPath: m_LocalPosition.y
      value: 0
      objectReference: {fileID: 0}
    - target: {fileID: 4945121953214020, guid: 93313bc3df103164b971e22bd9db9249, type: 2}
      propertyPath: m_LocalPosition.z
      value: 0
      objectReference: {fileID: 0}
    - target: {fileID: 4945121953214020, guid: 93313bc3df103164b971e22bd9db9249, type: 2}
      propertyPath: m_LocalRotation.x
      value: 0
      objectReference: {fileID: 0}
    - target: {fileID: 4945121953214020, guid: 93313bc3df103164b971e22bd9db9249, type: 2}
      propertyPath: m_LocalRotation.y
      value: 0
      objectReference: {fileID: 0}
    - target: {fileID: 4945121953214020, guid: 93313bc3df103164b971e22bd9db9249, type: 2}
      propertyPath: m_LocalRotation.z
      value: 0
      objectReference: {fileID: 0}
    - target: {fileID: 4945121953214020, guid: 93313bc3df103164b971e22bd9db9249, type: 2}
      propertyPath: m_LocalRotation.w
      value: 1
      objectReference: {fileID: 0}
    - target: {fileID: 4945121953214020, guid: 93313bc3df103164b971e22bd9db9249, type: 2}
      propertyPath: m_RootOrder
      value: 9
      objectReference: {fileID: 0}
    m_RemovedComponents: []
  m_ParentPrefab: {fileID: 100100000, guid: 93313bc3df103164b971e22bd9db9249, type: 2}
  m_IsPrefabParent: 0
--- !u!1001 &2045708104
Prefab:
  m_ObjectHideFlags: 0
  serializedVersion: 2
  m_Modification:
    m_TransformParent: {fileID: 0}
    m_Modifications:
    - target: {fileID: 4044230673419528, guid: f9d5fd2b251fc434983ac751f10c7c2d, type: 2}
      propertyPath: m_LocalPosition.x
      value: -132.4
      objectReference: {fileID: 0}
    - target: {fileID: 4044230673419528, guid: f9d5fd2b251fc434983ac751f10c7c2d, type: 2}
      propertyPath: m_LocalPosition.y
      value: 161.60843
      objectReference: {fileID: 0}
    - target: {fileID: 4044230673419528, guid: f9d5fd2b251fc434983ac751f10c7c2d, type: 2}
      propertyPath: m_LocalPosition.z
      value: -10
      objectReference: {fileID: 0}
    - target: {fileID: 4044230673419528, guid: f9d5fd2b251fc434983ac751f10c7c2d, type: 2}
      propertyPath: m_LocalRotation.x
      value: -0
      objectReference: {fileID: 0}
    - target: {fileID: 4044230673419528, guid: f9d5fd2b251fc434983ac751f10c7c2d, type: 2}
      propertyPath: m_LocalRotation.y
      value: -0
      objectReference: {fileID: 0}
    - target: {fileID: 4044230673419528, guid: f9d5fd2b251fc434983ac751f10c7c2d, type: 2}
      propertyPath: m_LocalRotation.z
      value: -0
      objectReference: {fileID: 0}
    - target: {fileID: 4044230673419528, guid: f9d5fd2b251fc434983ac751f10c7c2d, type: 2}
      propertyPath: m_LocalRotation.w
      value: 1
      objectReference: {fileID: 0}
    - target: {fileID: 4044230673419528, guid: f9d5fd2b251fc434983ac751f10c7c2d, type: 2}
      propertyPath: m_RootOrder
      value: 0
      objectReference: {fileID: 0}
    - target: {fileID: 114485778615469460, guid: f9d5fd2b251fc434983ac751f10c7c2d,
        type: 2}
      propertyPath: Target
      value: 
      objectReference: {fileID: 1355711705}
    - target: {fileID: 23539704972035602, guid: f9d5fd2b251fc434983ac751f10c7c2d,
        type: 2}
      propertyPath: m_Materials.Array.data[0]
      value: 
      objectReference: {fileID: 2100000, guid: bead36a75fe25884aa484a3d1842e9ac, type: 2}
    - target: {fileID: 23258033567857448, guid: f9d5fd2b251fc434983ac751f10c7c2d,
        type: 2}
      propertyPath: m_Materials.Array.data[0]
      value: 
      objectReference: {fileID: 2100000, guid: 0ec499db730f61f4194e918fae9741d7, type: 2}
    - target: {fileID: 23285695492307780, guid: f9d5fd2b251fc434983ac751f10c7c2d,
        type: 2}
      propertyPath: m_Materials.Array.data[0]
      value: 
      objectReference: {fileID: 2100000, guid: 12e8715cc96ce1e438142eee87f8acf9, type: 2}
    - target: {fileID: 23422005019474972, guid: f9d5fd2b251fc434983ac751f10c7c2d,
        type: 2}
      propertyPath: m_Materials.Array.data[0]
      value: 
      objectReference: {fileID: 2100000, guid: 9ed11fc12ff9c964ea098703f1a1cbd8, type: 2}
    m_RemovedComponents: []
  m_ParentPrefab: {fileID: 100100000, guid: f9d5fd2b251fc434983ac751f10c7c2d, type: 2}
  m_IsPrefabParent: 0
--- !u!1001 &2064762995
Prefab:
  m_ObjectHideFlags: 0
  serializedVersion: 2
  m_Modification:
    m_TransformParent: {fileID: 0}
    m_Modifications:
    - target: {fileID: 4987565986667288, guid: 333118524d30efa4d898418ee0913f36, type: 2}
      propertyPath: m_LocalPosition.x
      value: 124.58675
      objectReference: {fileID: 0}
    - target: {fileID: 4987565986667288, guid: 333118524d30efa4d898418ee0913f36, type: 2}
      propertyPath: m_LocalPosition.y
      value: 155.56844
      objectReference: {fileID: 0}
    - target: {fileID: 4987565986667288, guid: 333118524d30efa4d898418ee0913f36, type: 2}
      propertyPath: m_LocalPosition.z
      value: 0
      objectReference: {fileID: 0}
    - target: {fileID: 4987565986667288, guid: 333118524d30efa4d898418ee0913f36, type: 2}
      propertyPath: m_LocalRotation.x
      value: -0
      objectReference: {fileID: 0}
    - target: {fileID: 4987565986667288, guid: 333118524d30efa4d898418ee0913f36, type: 2}
      propertyPath: m_LocalRotation.y
      value: -0
      objectReference: {fileID: 0}
    - target: {fileID: 4987565986667288, guid: 333118524d30efa4d898418ee0913f36, type: 2}
      propertyPath: m_LocalRotation.z
      value: -0
      objectReference: {fileID: 0}
    - target: {fileID: 4987565986667288, guid: 333118524d30efa4d898418ee0913f36, type: 2}
      propertyPath: m_LocalRotation.w
      value: 1
      objectReference: {fileID: 0}
    - target: {fileID: 4987565986667288, guid: 333118524d30efa4d898418ee0913f36, type: 2}
      propertyPath: m_RootOrder
      value: 8
      objectReference: {fileID: 0}
    - target: {fileID: 114380605348478542, guid: 333118524d30efa4d898418ee0913f36,
        type: 2}
      propertyPath: RequireIceOrb
      value: 0
      objectReference: {fileID: 0}
    - target: {fileID: 114380605348478542, guid: 333118524d30efa4d898418ee0913f36,
        type: 2}
      propertyPath: NextLevel
      value: Level2
      objectReference: {fileID: 0}
    m_RemovedComponents: []
  m_ParentPrefab: {fileID: 100100000, guid: 333118524d30efa4d898418ee0913f36, type: 2}
  m_IsPrefabParent: 0
--- !u!1001 &2129416173
Prefab:
  m_ObjectHideFlags: 0
  serializedVersion: 2
  m_Modification:
    m_TransformParent: {fileID: 0}
    m_Modifications:
    - target: {fileID: 4145197709482964, guid: 252defa57e3da2b48a077476bd393232, type: 2}
      propertyPath: m_LocalPosition.x
      value: 0
      objectReference: {fileID: 0}
    - target: {fileID: 4145197709482964, guid: 252defa57e3da2b48a077476bd393232, type: 2}
      propertyPath: m_LocalPosition.y
      value: 0
      objectReference: {fileID: 0}
    - target: {fileID: 4145197709482964, guid: 252defa57e3da2b48a077476bd393232, type: 2}
      propertyPath: m_LocalPosition.z
      value: 0
      objectReference: {fileID: 0}
    - target: {fileID: 4145197709482964, guid: 252defa57e3da2b48a077476bd393232, type: 2}
      propertyPath: m_LocalRotation.x
      value: 0
      objectReference: {fileID: 0}
    - target: {fileID: 4145197709482964, guid: 252defa57e3da2b48a077476bd393232, type: 2}
      propertyPath: m_LocalRotation.y
      value: 0
      objectReference: {fileID: 0}
    - target: {fileID: 4145197709482964, guid: 252defa57e3da2b48a077476bd393232, type: 2}
      propertyPath: m_LocalRotation.z
      value: 0
      objectReference: {fileID: 0}
    - target: {fileID: 4145197709482964, guid: 252defa57e3da2b48a077476bd393232, type: 2}
      propertyPath: m_LocalRotation.w
      value: 1
      objectReference: {fileID: 0}
    - target: {fileID: 4145197709482964, guid: 252defa57e3da2b48a077476bd393232, type: 2}
      propertyPath: m_RootOrder
      value: 15
      objectReference: {fileID: 0}
    m_RemovedComponents: []
  m_ParentPrefab: {fileID: 100100000, guid: 252defa57e3da2b48a077476bd393232, type: 2}
  m_IsPrefabParent: 0
